module github.com/JustHumanz/Go-Simp

go 1.15

require (
	github.com/BurntSushi/toml v0.4.1
	github.com/bwmarrin/discordgo v0.23.3-0.20210627161652-421e14965030
	github.com/cenkalti/dominantcolor v0.0.0-20210411190141-70117844b8ca
	github.com/go-redis/redis/v8 v8.11.2
	github.com/go-sql-driver/mysql v1.6.0
	github.com/gorilla/mux v1.8.0
	github.com/hako/durafmt v0.0.0-20210608085754-5c1018a4e16b
	github.com/mattn/go-runewidth v0.0.13 // indirect
	github.com/n0madic/twitter-scraper v0.0.0-20210804080012-9f43f3881e83
	github.com/nicklaw5/helix v1.24.2
	github.com/olekukonko/tablewriter v0.0.5
	github.com/pbnjay/memory v0.0.0-20210728143218-7b4eea64cf58
	github.com/prometheus/client_golang v1.11.0
	github.com/prometheus/common v0.30.0 // indirect
	github.com/prometheus/procfs v0.7.2 // indirect
	github.com/pytimer/mux-logrus v0.0.0-20200505085744-ce5a5e748151
	github.com/robfig/cron/v3 v3.0.1
	github.com/sirupsen/logrus v1.8.1
	github.com/stretchr/testify v1.7.0 // indirect
	github.com/top-gg/go-dbl v0.0.0-20201116001615-e844586b1159
	golang.org/x/crypto v0.0.0-20210711020723-a769d52b0f97 // indirect
	golang.org/x/net v0.0.0-20210805182204-aaa1db679c0d // indirect
	golang.org/x/sys v0.0.0-20210806184541-e5e7981a1069 // indirect
	golang.org/x/time v0.0.0-20210723032227-1f47c861a9ac // indirect
	google.golang.org/genproto v0.0.0-20210805201207-89edb61ffb67 // indirect
	google.golang.org/grpc v1.39.1
	google.golang.org/protobuf v1.27.1
	gopkg.in/yaml.v3 v3.0.0-20210107192922-496545a6307b // indirect
)
